{
  "type": "service_account",
  "project_id": "pfe18-ed1a4",
  "private_key_id": "7e334cf05cd5976b63e3255e5191a54deb88f738",
  "private_key": "-----BEGIN PRIVATE KEY-----\nMIIEvQIBADANBgkqhkiG9w0BAQEFAASCBKcwggSjAgEAAoIBAQCVTIDj2zL2i9Fp\nkHJqrVks6wF4SNczZ+aJjp0i8bOBz7edLwf9wZc2PvFB2YNDqlFTg4hKHCYfVUSS\npHN1h6cGy6oyBtR94igQ1Rp5V5fahdY5yfQO60EmBWOLTgNrLgYjZk567YosvRVK\n29M4OWCpcsRH4mH5z0VciCf6X3KlNIPB39Aewcxsd5AOWRa9eONDMvdhJC2+09hw\nGHqrEenuGWbgOxi4V7jsAtt5aBNH7Lt93zJFlEqT4gO1wWcUyAEihBokSFgHeZh0\nh0YZ7epcF3+umR6CWm6ATt1yu6E1/jdT/9QCWgoNZWDSKkxNbgaPZXgpOdJP/qru\nUP2IYMUZAgMBAAECggEABkeP+kV7eMQ7vCFvto3w/MMrrif+KTLbDvkZIeGhp7mZ\nYvqZ7vHoDseJ9TeVXlC5F/al0lwpvFKlTjethYl9nHsPfwgrgtnyznZwJR9qiy3q\n60ZTxhbeCB/c5nyTBzyJ1I5WibQZBjWzwhDJ6wj6yFXD7LQYY930cGZnrA+8rjcd\nS0AHjQ+MiaKVHeftv05mGvUFSE9kagoJOviPQmGQAXL/3fsGdVhdSCcHOZ3PHV6S\nzwV6simv+ZGvncUqDudpmYkiSIpXawAUwO9kmESJOQ8HEX6+RkxQSXrHknD9tHTY\nstsDGWlYCNtchvM1rwRfrxRW8WIYYk0vbc/yPNyQ6wKBgQDFcVm/KlBlcyQHbx7F\n5a2YEEW+DoKGSTtsB/MPwC/8XgqXVIwgj018cbqInKKLKtjBrHmIhYXLfWVgk1tk\nCFEErznFSLuJKP6zCYBWDZraremyl0NEKKQV2OrDD3ZzojLoL2o3jHiR5cP1RQvn\nXpRlAf/YHR2uEaCJclZWUE0G/wKBgQDBk98x3o/+heBBwx5NA24bAxYQqSvfU+8j\n64hCA17lnwJ508L9JBZ7xJjmp14NLoU3Sj4UZlqLmgY1gPZB0stcBROlo7kEy6x3\nRWaLx08Rk1DZKY4/TDzc1D3htzhZI43oITiykipU+/2bEo2MhYdUDjUZCbz4UzX9\nK/tkOu2L5wKBgGSKH8U0atP+Ga6favAi0I7KWnk5MkXnLJcKRT8UAltkF8iPiPtb\nfX2M/Atsl2h+XPniNdDLDSJdrC3NW5BIm9ji0WwgaT6i3W+VuwAW1W/dd081r08Z\n0tQ9LO4/BXZEdd+9pTy8DvlcIrjWfAVJKA93QSxvRxnIaBMVYdl58n9JAoGAQHV8\nCgAhlNCBl4Rgj6aHwIjrjQq4KDqr1Bs3GTxEGlQzn9uq/15H+ljBzXSH9f26sGmR\neHuIxRm53ZEe71ZBD1hFbY+yKW2k9WZvujXZF3IlptqWmm9JiQNHw+Sd59jWBSki\n1xui6v+qODwaVGOWZ5//gGHkwg/7V12Q7ZRNy5sCgYEAmDVCbCGoFIhMRsvab0GX\nAfJ0H0bMHAsHS4r8OliyliIdi2kQUi4dOQYIcoXI0NNfacGvwEOj3D0df/UG7Bv6\nZCvIAu0YWlVyIzy8a01xTcbUwS3eRuLc6vLYtdtuWFdlYwGFg1XB36LTcuzbKmNK\nALLYvF3rXulaxYNZOkEyQj8=\n-----END PRIVATE KEY-----\n",
  "client_email": "firebase-adminsdk-kr9q5@pfe18-ed1a4.iam.gserviceaccount.com",
  "client_id": "104240778726565436223",
  "auth_uri": "https://accounts.google.com/o/oauth2/auth",
  "token_uri": "https://accounts.google.com/o/oauth2/token",
  "auth_provider_x509_cert_url": "https://www.googleapis.com/oauth2/v1/certs",
  "client_x509_cert_url": "https://www.googleapis.com/robot/v1/metadata/x509/firebase-adminsdk-kr9q5%40pfe18-ed1a4.iam.gserviceaccount.com"
}
